{
    "callbackModule": "sample.webapp.racer.pkgapp.AppSourceCallback",
    "initialSourcePaths": [
        {
            "path": [
                "src"
            ],
            "searchFilter": ".*\\.js$"
        }
    ],
    "refreshInterval": 10,
    "refreshSourcePaths": [
        {
            "path": [
                "src"
            ],
            "searchFilter": ".*\\.js$"
        }
    ]
}